Primeiros passos com atlasdasviolenciaR
…
get_themes retorna um data.frame com IDs de
temas disponíveis. As séries estão agrupadas dentro dos temas. Para
sabermos as séries disponíveis dentro dos temas podemos usar a função
get_series e passar o ID do tema desejado. Vamos buscar as
séries disponíveis sobre o tema Óbitos por Armas de Fogo, que
tem como ID = 5.

get_series(theme_id = 5)
#> # A tibble: 26 × 2
#>       id titulo                                                                 
#>    <int> <chr>                                                                  
#>  1   160 Homicídios de Homens por Armas de Fogo                                 
#>  2   162 Homicídios de Mulheres por Armas de Fogo                               
#>  3    31 Homicídios por Armas de Fogo                                           
#>  4   183 Óbitos de Homens por Armas de Fogo                                     
#>  5   185 Óbitos de Jovens por Armas de Fogo                                     
#>  6   184 Óbitos de Mulheres por Armas de Fogo                                   
#>  7   180 Óbitos por Armas de Fogo                                               
#>  8   193 Proporção Óbitos por Arma de Fogo de Homens ao Total de Óbitos por Arm…
#>  9   195 Proporção Óbitos por Arma de Fogo de Jovens ao Total de Óbitos por Arm…
#> 10   194 Proporção Óbitos por Arma de Fogo de Mulheres ao Total de Óbitos por A…
#> # … with 16 more rows
…
